…
``` r
fisheries_clean <- fisheries_clean %>% 
  mutate(across(where(is.character),as.factor)) %>% 
  mutate(across(period,as.factor))
```




``` r
fisheries_clean
```

```
## # A tibble: 1,055,015 × 9
##    period continent geo_region    country     scientific_name common_name       
##    <fct>  <fct>     <fct>         <fct>       <fct>           <fct>             
##  1 1950   Asia      Southern Asia Afghanistan Osteichthyes    Freshwater fishes…
##  2 1951   Asia      Southern Asia Afghanistan Osteichthyes    Freshwater fishes…
##  3 1952   Asia      Southern Asia Afghanistan Osteichthyes    Freshwater fishes…
##  4 1953   Asia      Southern Asia Afghanistan Osteichthyes    Freshwater fishes…
##  5 1954   Asia      Southern Asia Afghanistan Osteichthyes    Freshwater fishes…
##  6 1955   Asia      Southern Asia Afghanistan Osteichthyes    Freshwater fishes…
##  7 1956   Asia      Southern Asia Afghanistan Osteichthyes    Freshwater fishes…
##  8 1957   Asia      Southern Asia Afghanistan Osteichthyes    Freshwater fishes…
##  9 1958   Asia      Southern Asia Afghanistan Osteichthyes    Freshwater fishes…
## 10 1959   Asia      Southern Asia Afghanistan Osteichthyes    Freshwater fishes…
## # ℹ 1,055,005 more rows
## # ℹ 3 more variables: taxonomic_code <fct>, catch <dbl>, status <fct>
```
…
6. In 2023, what were the top five countries that had the highest overall catch?

``` r
fisheries_clean %>% 
  filter(period=="2023") %>% 
  group_by(country) %>% 
  summarise(number_catch_country=sum(catch,na.rm=T)) %>% 
  arrange(desc(number_catch_country))#top five is China,Indonesia,India,Russian Federation,United States of America.
```

```
## # A tibble: 238 × 2
##    country                  number_catch_country
##    <fct>                                   <dbl>
##  1 China                               13424705.
##  2 Indonesia                            7820833.
##  3 India                                6177985.
##  4 Russian Federation                   5398032 
##  5 United States of America             4623694 
##  6 Peru                                 3519381.
##  7 Viet Nam                             3417238.
##  8 Japan                                2904942.
##  9 Chile                                2596488.
## 10 Norway                               2546846.
## # ℹ 228 more rows
```

7. In 2023, what were the top 10 most caught species? To keep things simple, assume `common_name` is sufficient to identify species. What does `NEI` stand for in some of the common names? How might this be concerning from a fisheries management perspective?

``` r
fisheries_clean %>% 
  filter(period=="2023") %>% 
  group_by(common_name) %>% 
  summarise(number_catch_commonname=sum(catch,na.rm=T)) %>% 
  arrange(desc(number_catch_commonname))#top 10 show as below.
```

```
## # A tibble: 2,870 × 2
##    common_name                    number_catch_commonname
##    <fct>                                            <dbl>
##  1 Marine fishes NEI                             8553907.
##  2 Freshwater fishes NEI                         5880104.
##  3 Alaska pollock(=Walleye poll.)                3543411.
##  4 Skipjack tuna                                 2954736.
##  5 Anchoveta(=Peruvian anchovy)                  2415709.
##  6 Blue whiting(=Poutassou)                      1739484.
##  7 Pacific sardine                               1678237.
##  8 Yellowfin tuna                                1601369.
##  9 Atlantic herring                              1432807.
## 10 Scads NEI                                     1344190.
## # ℹ 2,860 more rows
```
…
